## Interface: 11305
## Title: Healium
## Notes: A healing user-interface addon that provides up to 15 customizable buttons next to each party or raid members name.  Based on FB Healbox.
## SavedVariables: HealiumGlobal
## SavedVariablesPerCharacter: Healium

embeds.xml

UIDropDownMenuTemplates.xml
UIDropDownMenu.lua
HealiumHealButton.lua
HealiumSpells.lua
HealiumSlashCommands.lua
HealiumConfigPanel.lua
HealiumMinimapButton.lua
Healium.lua
HealiumMenu.lua
Healium.xml
HealiumUnitFrames.xml
HealiumUnitFrames.lua
